{
  "shell_port": 56437,
  "iopub_port": 48317,
  "stdin_port": 37151,
  "control_port": 46611,
  "hb_port": 38535,
  "ip": "127.0.0.1",
  "key": "a0e77e36-1f7dad5297854168e2cc6892",
  "transport": "tcp",
  "signature_scheme": "hmac-sha256",
  "kernel_name": ""
}